{
  "intents": [
    {
      "tag": "SW - Office",
      "patterns": [
        "office 365","outlook","excel","word","power point","office","project","visio","onedrive","office365","one drive","powerpoint","licenza","account email ","sharepoint","share point","spam","casella di posta","mail","e-mail","aggiungere indirizzo","credenziali","exchange","cartelle","sincronizzare","archivi","calendario","skype"
      ]
    },
    {
      "tag": "SW - Sistema Operativo",
      "patterns": [
        "windows 10","windows 8.1","windows 7","antivirus","symantec","reinstallazione","profilo utente","utenza","reset","password","licenze msdn","aggiornamento","framework","pc","computer","monitor"
      ]
    },
	{
      "tag": "SW - Mago",
      "patterns": [
        "mago","documentazione","report"
      ]
    },
	{
      "tag": "SW - Internet",
      "patterns": [
        "firewall","dominio","dns","connessione rdp","abilitare connessione WiFi alla rete"
      ]
    },
	{
      "tag": "SW - SVN",
      "patterns": [
        "svn","anomalia","integrazione sv","ide android studio","merge","repository","eclipse"
      ]
    },
	{
      "tag": "SW - VPN",
      "patterns": [
        "vpn","forticlient","commit","update","ping","server","connessione","telnet","connettere","porte"
      ]
    },
	{
      "tag": "SW - Server",
      "patterns": [
        "macchina 192.168.0.236","ampdevserver","server","192.168.0.230","SMTP","ping","pinga"
      ]
    },
	{
      "tag": "SW - Altri Software",
      "patterns": [
        "adobe","acrobat","pdf","7zip","java","winzip","abilitare","commesse","formazione","roadmap","vulnerabilità","aggiornare","aggiornamento"
      ]
    },
	{
      "tag": "HW - Rete",
      "patterns": [
        "login","password","rete","accesso","utente","ip","wifi","connessione"
      ]
    },
	{
      "tag": "HW - Accessori",
      "patterns": [
        "pc","tastiera","mouse","monitor","schermo","cavo","hdmi","sostituzione","richiesta","richiedere","bluetooth","nuovo","adattatore","ethernet","rotto","saponetta vodafone","cellulare","sim aziendale","telefono","tasto","cuffie","terminali","postazione","numero","elenco code","cell","hub usb","alimentatore","alzatina","accessori"
      ]
    },
	{
      "tag": "HW - PC",
      "patterns": [
        "reinstallazione","guasto","cambio pc","ram","hard disk","nuovo","presa","rotto","portatile","laptop","rallentamento","lento","upgrade","memoria","hd","ssd","hdd","mac","configurato","configurazione"
      ]
    },
    {
      "tag": "noanswer",
      "patterns": [""],
      "responses": [
        "noanswer"
      ]
    }
  ]
}